{
  "project_info": {
    "project_number": "814007346802",
    "firebase_url": "https://altoke-app-ddf34.firebaseio.com",
    "project_id": "altoke-app-ddf34",
    "storage_bucket": "altoke-app-ddf34.appspot.com"
  },
  "client": [
    {
      "client_info": {
        "mobilesdk_app_id": "1:814007346802:android:155cea5b59c0cec5",
        "android_client_info": {
          "package_name": "com.cerezaconsulting.altokeadmin.test"
        }
      },
      "oauth_client": [
        {
          "client_id": "814007346802-mfqivs492ols3sbk73k2l789q3jasf48.apps.googleusercontent.com",
          "client_type": 1,
          "android_info": {
            "package_name": "com.cerezaconsulting.altokeadmin.test",
            "certificate_hash": "8e793fa4ddb322f2d12b5c97777eb25341126c1d"
          }
        },
        {
          "client_id": "814007346802-vocv0otds0o6bt0otrhtft453ml80e5t.apps.googleusercontent.com",
          "client_type": 3
        }
      ],
      "api_key": [
        {
          "current_key": "AIzaSyDIjZZc97OnY7sPC_6G9_k8B2rNfB7owAE"
        }
      ],
      "services": {
        "analytics_service": {
          "status": 1
        },
        "appinvite_service": {
          "status": 2,
          "other_platform_oauth_client": [
            {
              "client_id": "814007346802-vocv0otds0o6bt0otrhtft453ml80e5t.apps.googleusercontent.com",
              "client_type": 3
            }
          ]
        },
        "ads_service": {
          "status": 2
        }
      }
    },
    {
      "client_info": {
        "mobilesdk_app_id": "1:814007346802:android:fcfb00ca94a896e8",
        "android_client_info": {
          "package_name": "com.cerezaconsulting.altokeadmin"
        }
      },
      "oauth_client": [
        {
          "client_id": "814007346802-vocv0otds0o6bt0otrhtft453ml80e5t.apps.googleusercontent.com",
          "client_type": 3
        }
      ],
      "api_key": [
        {
          "current_key": "AIzaSyDIjZZc97OnY7sPC_6G9_k8B2rNfB7owAE"
        }
      ],
      "services": {
        "analytics_service": {
          "status": 1
        },
        "appinvite_service": {
          "status": 1,
          "other_platform_oauth_client": []
        },
        "ads_service": {
          "status": 2
        }
      }
    },
    {
      "client_info": {
        "mobilesdk_app_id": "1:814007346802:android:98669ae24e4d10ab",
        "android_client_info": {
          "package_name": "com.cerezaconsulting.altok"
        }
      },
      "oauth_client": [
        {
          "client_id": "814007346802-vf1200u9peep9tbna62g0e6t632sc573.apps.googleusercontent.com",
          "client_type": 1,
          "android_info": {
            "package_name": "com.cerezaconsulting.altok",
            "certificate_hash": "f4673a3c1c9a34bf2714141aad2ae890bc9e4e6f"
          }
        },
        {
          "client_id": "814007346802-vocv0otds0o6bt0otrhtft453ml80e5t.apps.googleusercontent.com",
          "client_type": 3
        }
      ],
      "api_key": [
        {
          "current_key": "AIzaSyDIjZZc97OnY7sPC_6G9_k8B2rNfB7owAE"
        }
      ],
      "services": {
        "analytics_service": {
          "status": 1
        },
        "appinvite_service": {
          "status": 2,
          "other_platform_oauth_client": [
            {
              "client_id": "814007346802-vocv0otds0o6bt0otrhtft453ml80e5t.apps.googleusercontent.com",
              "client_type": 3
            }
          ]
        },
        "ads_service": {
          "status": 2
        }
      }
    },
    {
      "client_info": {
        "mobilesdk_app_id": "1:814007346802:android:e2e830ed476ebb37",
        "android_client_info": {
          "package_name": "com.cerezaconsulting.altok.test"
        }
      },
      "oauth_client": [
        {
          "client_id": "814007346802-8do0dhh7mn9i7gt1od9qs5b66c9qkqim.apps.googleusercontent.com",
          "client_type": 1,
          "android_info": {
            "package_name": "com.cerezaconsulting.altok.test",
            "certificate_hash": "e0c12bf2459ddd34e2d2c6a71cfba0981e3d76ff"
          }
        },
        {
          "client_id": "814007346802-vocv0otds0o6bt0otrhtft453ml80e5t.apps.googleusercontent.com",
          "client_type": 3
        }
      ],
      "api_key": [
        {
          "current_key": "AIzaSyDIjZZc97OnY7sPC_6G9_k8B2rNfB7owAE"
        }
      ],
      "services": {
        "analytics_service": {
          "status": 1
        },
        "appinvite_service": {
          "status": 2,
          "other_platform_oauth_client": [
            {
              "client_id": "814007346802-vocv0otds0o6bt0otrhtft453ml80e5t.apps.googleusercontent.com",
              "client_type": 3
            }
          ]
        },
        "ads_service": {
          "status": 2
        }
      }
    }
  ],
  "configuration_version": "1"
}